\relax 
\catcode `"\active 
\babel@aux{swedish}{}
\newlabel{varfor}{{1}{1}}
\@writefile{toc}{\contentsline {section}{\numberline {1}Varf\IeC {\"o}r beh\IeC {\"o}vs komplexa tal}{1}}
\@writefile{toc}{\contentsline {section}{\numberline {2}Historisk uppkomst}{1}}
\@writefile{toc}{\contentsline {section}{\numberline {3}Komplexa exponenter}{1}}
\@writefile{toc}{\contentsline {subsection}{\numberline {3.1}Eulers formel}{2}}
\newlabel{euler_id}{{3.1}{2}}
\@writefile{toc}{\contentsline {subsection}{\numberline {3.2}Konvertering till och fr\IeC {\r a}n pol\IeC {\"a}r form}{2}}
\@writefile{toc}{\contentsline {section}{\numberline {4}Komplexa tal p\IeC {\r a} pol\IeC {\"a}r form}{2}}
